哥布林杀手01
----------------------------------
作者：蜗牛くも
插画：神奈月升
译者：邱钟仁
图源：不息不止
录入：不留名
校对：不留名
修图：

仅供个人学习交流使用，严禁商业用途
下载後请在24小时内删除
动漫之家http://bbs.dmzj.com不负担任何责任
请尊重上述人员的辛劳
转载请保留以上信息
----------------------------------
原发布地址：
http://bbs.dmzj.com/thread-1193955-1-1.html